662437 199157 509
249586 51084 443
476921 864367 525
400831 636491 509
628907 247075 509
985241 177813 525
305806 825631 509
289372 402708 441
762645 592119 509
675417 795706 504
832362 194459 509
628277 816297 504
802871 12783 509
963209 675299 525
737320 176919 509
803819 520133 509
342401 158284 443
941592 184739 525
415547 803848 509
460437 625464 470
787753 145792 509
949878 43131 525
761501 632284 504
810828 441490 509
172943 83866 383
574192 887936 525
159654 782953 509
176754 452912 449
177460 749447 509
800300 975959 525
814020 973935 525
209747 502348 449
963779 763843 525
638908 688440 442
413526 110492 449
309412 815576 509
696077 932165 525
646023 786157 504
58886 33330 340
110413 161370 383
137358 948730 525
220476 391950 443
193754 948302 525
312388 758567 509
769047 803268 468
57226 975928 525
820682 487881 509
244300 557600 470
450750 998179 525
449536 781139 509
144022 552760 470
953433 993822 458
246640 252837 350
939759 301487 525
402938 637131 509
655976 830956 504
587513 947379 525
423648 485538 444
3395 302606 443
602608 481730 470
543079 836771 509
679932 87090 509
777696 996282 525
648967 674037 442
981085 798929 525
97028 159376 383
801267 189112 509
833899 295643 509
797720 665713 504
25699 433155 449
314682 44614 443
689740 911418 525
912824 693852 525
32178 136920 354
406498 691427 509
636367 297628 509
993189 670820 525
504464 280641 449
964123 356423 525
484128 7184 449
638606 738978 504
838376 999551 507
749134 491296 509
859305 790041 525
394248 528067 470
265731 221261 443
837760 202367 509
267801 663772 509
982769 575504 525
792572 386344 509
961693 279115 525
709732 901570 525
636380 232541 509
823443 674878 504
190070 706335 509
521084 406440 470
107715 169537 383
882101 637673 525
691438 31331 509
27759 76508 340
782578 377319 509
29172 816140 509
534976 109087 470
194644 689649 509
429178 401037 449
694235 960235 525
632920 565290 509
90160 973573 525
719098 708653 411
141845 673529 509
20675 628239 509
148717 2763 375
52340 623137 470
690186 525562 509
239365 419940 449
712341 9349 509
921595 527319 525
631382 570688 509
224734 769013 509
261253 163216 443
578253 877546 525
48469 807979 509
562500 50459 470
572966 405694 470
757759 263628 509
505138 96149 449
281241 765222 509
864749 231262 525
447119 307402 449
150681 191768 383
812895 986357 525
280640 718913 509
510476 992152 525
893945 621437 525
967800 135520 525
699572 39408 509
584462 64766 470
361114 719637 509
859144 538844 525
280243 765728 509
226486 707802 509
108428 683598 509
562392 251499 470
839150 176780 525
382710 344189 441
666965 594351 509
521810 863721 525
276401 52612 443
500742 31150 449
622514 722083 509
29996 940578 525
69988 307966 443
441611 743910 509
302030 443322 449
119180 604725 470
855517 954834 507
371519 187716 443
346136 819655 509
679338 128775 509
643989 115127 509
7952 147726 375
790743 200932 509
965731 292266 525
486379 30166 449
274370 824144 509
10298 548686 470
318273 292081 384
528998 489468 470
945270 855676 507
23686 581887 470
405539 534771 470
632629 285531 509
648382 147203 509
994865 360118 525
229187 691793 509
555716 535014 452
417589 480273 444
953643 423937 525
819106 939520 525
67332 787585 509
757278 290991 509
939704 853408 507
892389 385889 525
971974 37769 525
826935 89061 509
751876 367867 509
668501 876130 525
516514 363396 470
367615 815200 509
236644 136066 443
693671 760640 504
703760 177332 509
606749 615245 447
534246 57365 470
355475 144768 443
415927 517399 470
529365 88595 470
368796 93315 443
878188 935461 476
128415 765850 509
303360 517389 470
349392 519629 470
846161 987467 507
229275 43282 386
51151 843841 525
769108 356145 509
27996 304343 443
609192 323987 470
515645 630332 509
788708 53791 509
94595 300192 443
604105 708410 509
614412 819263 509
643771 189625 509
565276 406803 470
478920 589589 470
335015 495872 449
821318 287605 509
535386 538528 377
978571 601875 525
984148 331628 525
412879 585958 470
104235 625991 470
28953 196373 383
680918 76270 509
803578 486218 509
837138 74060 509
211193 714611 509
953878 706333 525
151507 42111 375
405675 543487 470
468172 458895 444
293796 143432 443
97405 640494 509
971657 271971 525
757283 960345 525
599472 165924 470
594198 980471 525
385938 157960 443
422274 997829 525
497416 477874 426
97369 418835 449
559863 509967 470
392819 785067 509
727453 580227 509
350866 325573 441
413268 941539 525
662637 87373 509
90672 481693 449
120516 103911 354
