368022 735629 509
217343 990676 525
377291 32521 443
87907 440547 449
405092 526299 470
468264 315655 449
919256 912715 383
488717 269056 449
942194 872262 507
342002 647477 509
1915 9186 262
3761 6884 262
9935 94 262
3998 267 238
8433 4679 262
7352 5367 262
2648 7485 262
6178 1020 262
2426 4098 238
1649 7279 262
1302 3662 217
1836 9936 262
9039 214 262
5566 8983 262
8039 1160 262
1500 1634 167
6190 2284 262
6587 6437 213
3925 8664 262
3172 8953 262
4033 355 238
5873 9661 262
8230 6685 257
7119 990 262
9627 2102 262
2933 8050 262
1887 9142 262
4346 2178 238
135 2367 183
9323 5123 262
3935 3729 176
4973 1070 238
6532 1958 262
6820 4629 262
7409 5400 262
7292 7066 195
2516 3972 238
4174 1365 238
4012 1839 238
9545 3992 262
8247 4855 262
6394 1969 262
2118 9373 262
2415 165 183
6755 4679 262
9428 2473 262
4971 1878 238
6740 3760 262
8930 5929 262
223 8185 262
9674 8189 260
4333 8998 262
2187 5968 238
2228 9096 262
4876 5613 236
2326 3975 238
1835 6771 262
2961 3438 199
3455 770 217
3131 8500 262
8679 3697 262
8884 6417 257
5115 1657 238
8179 1800 262
4554 9786 262
9714 4893 262
9629 6534 260
923 8646 262
4098 8379 262
3721 5510 215
8624 7720 252
511 623 137
9200 20 262
2632 4262 238
6565 5216 262
7500 4014 262
8192 5781 262
3160 5100 238
7403 6104 262
420 2695 209
932 8811 262
3131 6999 262
4956 3685 238
595 5675 238
5715 3930 236
2795 2749 173
3806 1385 238
5452 6926 262
934 4995 238
500 4559 238
3116 5873 238
1415 2892 209
4542 8598 262
8824 6090 262
6864 9409 260
1222 7277 262
5615 9326 262
3682 9605 262
8430 3462 262
7060 8729 252
10497 34363 311
67206 10785 340
10622 95371 351
23632 63538 340
49005 87771 351
12655 53613 340
28139 29950 272
51385 30443 324
47148 59086 340
29872 59458 340
88518 21085 351
61526 77010 330
35684 2261 324
98018 81710 333
18998 13074 279
90190 4548 351
25982 29691 308
62301 27761 340
33227 61383 340
79065 12142 351
45679 39804 314
32884 92220 351
81192 24121 351
11033 23504 279
59456 5150 340
57437 11346 340
31335 47526 324
61842 3429 340
61758 61544 286
98926 99906 328
26868 96997 351
41890 53312 340
13771 57962 340
35589 5128 311
73974 76417 325
25166 80586 351
90344 4813 351
81201 68593 351
4376 57657 340
92466 59845 351
41437 16547 324
76168 95983 351
95659 62527 351
36773 14600 324
22654 97032 351
25764 13670 282
39828 85217 351
66004 4763 340
38901 31301 324
75533 91698 351
45529 89388 351
59797 73741 335
51991 62770 340
85836 57548 351
76619 341 340
90861 59730 351
89386 77663 338
49640 88204 351
37498 63687 340
76719 15820 340
11845 79932 351
95578 98842 297
75141 59195 335
22181 11320 279
349 81163 351
30542 35951 324
41829 35084 324
15588 86663 351
10816 62780 340
48284 9859 324
90829 20581 351
12458 52407 324
97632 4230 351
40452 75972 340
90939 96679 333
27381 91961 351
8280 30158 308
56018 36377 340
55092 12025 340
25793 33252 308
10898 3327 262
63799 37867 340
12927 99703 351
24443 32763 308
40224 65879 340
39170 82390 351
9353 19771 279
32208 94240 351
47473 70451 340
8403 38403 324
79907 48421 351
76918 7389 340
50473 36348 314
20234 32053 308
17007 4706 276
74555 98901 351
50742 69617 340
57239 96282 351
26465 96760 351
24990 9755 282
34610 60750 340
18608 59912 340
81268 43561 351
7912 4553 262
76437 57784 335
97149 64845 351
3214 89680 351
1858 51371 324
19314 70062 340
54579 45329 340
28424 5686 308
7561 15858 276
66642 67012 268
84976 21294 351
56839 17502 340
4171 17190 276
98219 3130 351
41539 39493 306
46414 78683 351
93941 18452 351
33028 27676 285
24158 45012 324
13710 47468 324
46954 78004 351
23176 3575 279
60044 7411 340
53508 91447 351
9134 72042 340
29465 27843 272
88257 95192 333
64392 226 340
96553 95036 328
80703 59172 351
14894 87877 351
35922 71158 340
50633 85020 351
14036 64865 340
61830 9135 340
61294 73772 330
98639 35376 351
1530 61179 340
36849 38595 306
74872 13618 340
7734 28633 308
64259 45938 340
84881 6229 351
46429 2003 324
97250 2244 351
10518 1913 262
49883 55162 340
