6228 825519 509
926843 177159 525
456086 841511 525
289822 485466 449
769099 52596 509
823818 53793 509
550464 360330 470
336683 561924 470
487712 470153 413
885212 927845 476
400140 211929 443
406619 189076 443
141156 872535 525
686431 766150 504
512165 825411 509
232598 754487 509
362998 734270 509
194416 230856 443
236891 584881 470
671579 473553 509
44639 73546 340
106272 234709 443
859991 418038 525
652728 402536 509
801014 238826 509
480185 379850 449
510887 77977 449
320390 160100 443
21989 305348 443
870783 388874 525
98214 704227 509
341788 763078 509
402311 545310 470
574660 91801 470
670192 993778 525
593759 686603 509
16877 564989 470
861571 623220 525
899831 641500 525
354215 941866 525
42647 309440 443
531325 493564 470
317719 491657 449
751533 702139 504
125424 278849 443
857595 247468 525
543936 476998 470
988375 224214 525
82977 851760 525
996606 21286 525
853344 276231 525
237177 121815 443
273125 192030 443
349947 917575 525
280742 823178 509
906705 440296 525
885742 132354 525
185624 892655 525
404895 872512 525
538533 737410 509
834352 911763 525
368257 2451 443
540487 523755 408
246613 339234 407
289152 673034 509
713543 388460 509
622960 218389 470
869281 702782 525
760102 501312 509
265492 177299 443
281303 961102 525
550459 769222 509
690903 525437 509
748144 860863 525
515171 284259 470
270635 249681 407
92148 901666 525
367209 237609 441
532689 243298 470
602394 942504 525
730373 294661 509
990184 276157 525
830830 84614 509
685121 26219 509
835866 506716 509
451631 961167 525
796215 758336 468
405898 66978 443
970066 410266 525
283179 793723 509
875901 163340 525
787975 148962 509
503880 725535 509
680833 508863 509
803689 727479 468
616518 560527 447
742716 776698 468
820365 200463 509
640312 533894 509
395509 581911 470
866814 924865 476
378258 53967 443
55293 853071 525
646482 202107 509
29887 210682 383
328215 992048 525
237879 437836 449
111164 713144 509
981768 922536 507
485704 404934 449
969114 476992 525
456517 47706 449
105832 171462 383
334788 362854 441
383353 419240 449
118841 424219 449
836192 910130 525
292294 201961 443
642403 109638 509
284393 885211 525
663954 209517 509
800820 854899 525
582192 317494 470
883994 614558 525
463608 22244 449
325244 266985 407
887416 524127 525
261847 870257 525
10982 57448 340
39434 436214 449
657683 647892 429
527551 909679 525
849263 489120 525
869938 565278 525
28999 105397 351
926042 10099 525
855221 24244 525
706240 604215 509
145388 421041 449
312920 51369 443
86912 883515 525
526628 848709 525
357577 596216 470
930953 934826 414
632879 36964 509
354017 396948 436
11617 16273 276
801010 120206 509
730170 552352 509
36518 790856 509
79037 89412 333
457023 769441 509
650351 625458 509
750342 831048 468
903995 778512 525
739892 186825 509
30172 528884 470
38211 638821 509
627778 717280 504
71423 60865 335
658158 189139 509
10090 974886 525
205411 958301 525
914959 747850 525
844169 570576 525
883070 832132 525
217486 676443 509
858511 194962 525
507139 775018 509
946605 131697 525
802604 81579 509
977929 393408 525
50469 464016 449
254620 773523 509
587110 382016 470
38279 798248 509
978004 925225 507
831830 247473 509
666685 323545 509
781067 552698 509
152395 882495 525
161844 888192 525
470573 763671 509
658628 612281 509
499478 297167 449
325398 340728 366
891151 882686 445
431933 191122 449
731712 390009 509
957842 129181 525
147909 875086 525
504170 863211 525
693169 740219 504
126675 103004 354
592949 136809 470
117165 724393 509
565899 635615 509
520902 936460 525
976908 779827 525
10162 241133 443
546739 912305 525
267650 315614 407
67987 947105 525
543115 729618 509
716366 66161 509
548088 372259 470
523652 528200 408
602619 980655 525
87993 311118 443
692747 225812 509
239630 246786 368
757484 943016 525
694332 412025 509
166579 926087 525
586843 888777 525
710961 119105 509
977369 512423 525
293095 850035 525
300344 86398 443
7516 654090 509
731435 972512 525
583835 669429 509
37048 347117 443
581472 640626 509
904020 10988 525
169659 114517 383
90134 717508 509
90932 340809 443
471805 528986 470
310150 451222 449
379573 708740 509
191393 2038 383
410805 922559 525
320816 288150 389
173880 630859 509
899738 423299 525
510448 470428 426
688940 846612 525
681284 797160 504
447782 185424 449
886023 524092 525
91835 932891 525
726388 153823 509
220761 104906 386
949692 58011 525
344112 770648 509
686746 128136 509
36351 172799 383
471651 884074 525
719871 489553 509