181874 899665 525
40573 548986 470
118539 718237 509
134113 807220 509
627172 574517 509
53168 656073 509
78510 569380 470
161321 123535 383
398904 382877 436
220576 996891 525
146182 915547 525
641938 14347 509
852730 626286 525
244716 130588 443
860873 645368 525
300328 451566 449
265690 59776 443
290273 249342 407
851724 511181 525
968109 659934 525
99039 785494 509
449660 778485 509
302709 768237 509
867682 624966 525
363391 527846 470
166675 141689 383
961649 96856 525
250198 68880 443
944336 857734 507
891345 264332 525
518096 117801 470
625026 562219 447
249713 916136 525
233326 90492 443
352301 854426 525
12856 109011 354
401121 11083 443
750603 368118 509
906694 866273 445
378668 767245 509
150175 37405 375
464389 504386 426
20814 684 279
391911 990445 525
827526 892922 525
992998 186520 525
49673 344872 443
831807 726213 468
884260 500837 525
796381 88994 509
326241 883267 525
948019 310098 525
893720 807372 525
942212 964116 414
870891 558929 525
725513 74123 509
844916 148433 525
791728 676747 504
270219 487291 449
263725 796257 509
302872 596548 470
680890 871679 525
43407 896757 525
195146 534261 470
975513 522682 525
414902 542524 470
918500 635135 525
967066 968073 308
102360 142905 375
686361 699911 442
372638 119446 443
102443 213646 383
725094 891115 525
113424 417139 449
644485 228965 509
249563 246723 350
821134 476525 509
607788 794011 509
912069 468437 525
669629 580650 509
524952 330646 470
88729 828543 509
781788 304644 509
218869 512126 470
307339 102096 443
70657 773869 509
917540 956007 507
324687 500224 449
58408 293833 443
961121 266457 525
431561 767818 509
755677 79867 509
227375 328813 443
565242 543018 452
181498 370802 443
713092 976203 525
702191 428715 509
51075 979747 525
898398 48339 525
500926 108245 449
4016 969760 525
278425 542949 470
715840 787587 468
448003 92822 449
357791 753672 509
630163 543205 509
648011 759162 504
8136 660901 509
131174 432804 449
814308 337961 509
8875 409557 443
131095 277076 443
887729 337804 525
261194 668973 509
399456 380511 436
243114 308676 407
814127 385801 509
381921 858536 525
617034 614111 447
994041 898503 507
250922 591782 470
87831 940277 525
860540 760046 525
859235 389912 525
34917 383248 443
900803 271709 525
982824 242801 525
913514 546301 525
835569 768282 468
110764 461838 449
252213 460081 449
722973 380696 509
276857 120094 443
144509 1216 375
26234 387723 443
550969 185641 470
188028 978479 525
162952 728961 509
838831 535840 525
639646 432614 509
347980 297654 441
728061 9535 509
713970 507774 509
12759 224485 386
535583 237205 470
101606 35806 351
875032 336358 525
956127 412240 525
682616 901255 525
369041 50955 443
590323 933767 525
680476 851183 525
263450 845306 525
515182 116612 470
516956 708372 509
870458 925845 476
626474 480086 509
252053 988972 525
709028 658185 504
596557 845012 525
865116 421338 525
884912 131292 525
447017 950660 525
242910 135233 443
48647 534791 470
60245 774112 509
224997 391534 443
500084 653349 509
851125 985257 507
343200 53550 443
700915 628619 442
740231 451477 509
960862 349448 525
905409 283319 525
79560 546972 470
164051 737349 509
140142 781702 509
572898 758195 509
996043 671707 525
322571 99448 443
594677 957947 525
792384 9314 509
233106 902158 525
933005 208186 525
327622 406640 441
790385 928437 525
779042 921409 525
278470 683433 509
916418 732107 525
768525 875717 525
848068 456665 525
353755 121319 443
16931 391293 443
299122 402226 441
540577 158128 470
343703 596466 470
619058 883304 525
117119 992910 525
504292 575314 470
638633 827350 504
228094 175354 386
446739 465908 444
84282 250740 443
427301 37223 449
47319 34441 324
898947 601545 525
808777 355932 509
808987 487875 509
226798 930042 525
635114 786648 504
808194 552350 509
388802 598276 470
430878 775974 509
699680 432846 509
814184 503579 509
156091 884977 525
246863 376212 441
704829 894479 525
845415 423239 525
503257 27882 449
946399 739107 525
400440 478529 449
292253 515076 470
143023 562801 470
188647 268781 443
713329 31279 509
852921 371868 525
247023 661534 509
826054 204357 509
683117 413935 509
125559 284979 443
447094 571009 470
418511 584873 470
721324 662881 504
717941 952897 525
162587 815240 509
617727 273708 470
585106 783236 509
907147 394974 525
696069 781907 504
316508 309907 384
862827 595785 525
366323 34112 443
268486 858003 525
238529 875962 525
973985 725574 525
933617 230385 525
801723 13975 509
535283 736384 509
395547 611501 470
